%YAML 1.1
%TAG !u! tag:unity3d.com,2011:
--- !u!1045 &1
EditorBuildSettings:
  m_ObjectHideFlags: 0
  serializedVersion: 2
  m_Scenes:
  - enabled: 1
    path: Assets/Scenes/00_StartScene.unity
  - enabled: 1
    path: Assets/Scenes/01_Splash_Scene.unity
  - enabled: 1
    path: Assets/Scenes/02_Credits.unity
  - enabled: 1
    path: Assets/Scenes/03_MainMenu.unity
  - enabled: 1
    path: Assets/Scenes/04_Instructions.unity
  - enabled: 1
    path: Assets/Scenes/05_WinScene.unity
  - enabled: 1
    path: Assets/Scenes/10_Locker_Room_Hub.unity
  - enabled: 1
    path: Assets/Scenes/10_Round_1_Scene.unity
  - enabled: 1
    path: Assets/Scenes/10_Round_2_Scene.unity
  - enabled: 1
    path: Assets/Scenes/10_Round_3_Scene.unity
