%YAML 1.1
%TAG !u! tag:unity3d.com,2011:
--- !u!74 &7400000
AnimationClip:
  m_ObjectHideFlags: 0
  m_PrefabParentObject: {fileID: 0}
  m_PrefabInternal: {fileID: 0}
  m_Name: HookRIght
  serializedVersion: 6
  m_Legacy: 0
  m_Compressed: 0
  m_UseHighQualityCurve: 1
  m_RotationCurves: []
  m_CompressedRotationCurves: []
  m_EulerCurves:
  - curve:
      serializedVersion: 2
      m_Curve:
      - time: 0
        value: {x: 149.13829, y: -269.20444, z: -245.20258}
        inSlope: {x: 97.102844, y: -172.13025, z: -97.1897}
        outSlope: {x: 97.102844, y: -172.13025, z: -97.1897}
        tangentMode: 0
      - time: 0.25
        value: {x: 173.414, y: -312.237, z: -269.5}
        inSlope: {x: 97.102844, y: -172.13025, z: -97.1897}
        outSlope: {x: 97.102844, y: -172.13025, z: -97.1897}
        tangentMode: 0
      m_PreInfinity: 2
      m_PostInfinity: 2
      m_RotationOrder: 4
    path: 
  m_PositionCurves:
  - curve:
      serializedVersion: 2
      m_Curve:
      - time: 0
        value: {x: 0.33675, y: -0.3, z: 0.413}
        inSlope: {x: 0.90900004, y: 0, z: 0}
        outSlope: {x: 0.90900004, y: 0, z: 0}
        tangentMode: 0
      - time: 0.25
        value: {x: 0.564, y: -0.3, z: 0.413}
        inSlope: {x: -0.36949998, y: 0.022000015, z: 1.0400001}
        outSlope: {x: -0.36949998, y: 0.022000015, z: 1.0400001}
        tangentMode: 0
      - time: 0.5
        value: {x: 0.152, y: -0.289, z: 0.933}
        inSlope: {x: -1.648, y: 0.04400003, z: 2.0800002}
        outSlope: {x: -1.648, y: 0.04400003, z: 2.0800002}
        tangentMode: 0
      m_PreInfinity: 2
      m_PostInfinity: 2
      m_RotationOrder: 4
    path: 
  m_ScaleCurves: []
  m_FloatCurves: []
  m_PPtrCurves: []
  m_SampleRate: 60
  m_WrapMode: 0
  m_Bounds:
    m_Center: {x: 0, y: 0, z: 0}
    m_Extent: {x: 0, y: 0, z: 0}
  m_ClipBindingConstant:
    genericBindings:
    - path: 0
      attribute: 1
      script: {fileID: 0}
      classID: 4
      customType: 0
      isPPtrCurve: 0
    - path: 0
      attribute: 4
      script: {fileID: 0}
      classID: 4
      customType: 14
      isPPtrCurve: 0
    pptrCurveMapping: []
  m_AnimationClipSettings:
    serializedVersion: 2
    m_AdditiveReferencePoseClip: {fileID: 0}
    m_AdditiveReferencePoseTime: 0
    m_StartTime: 0
    m_StopTime: 0.5
    m_OrientationOffsetY: 0
    m_Level: 0
    m_CycleOffset: 0
    m_HasAdditiveReferencePose: 0
    m_LoopTime: 0
    m_LoopBlend: 0
    m_LoopBlendOrientation: 0
    m_LoopBlendPositionY: 0
    m_LoopBlendPositionXZ: 0
    m_KeepOriginalOrientation: 0
    m_KeepOriginalPositionY: 1
    m_KeepOriginalPositionXZ: 0
    m_HeightFromFeet: 0
    m_Mirror: 0
  m_EditorCurves:
  - curve:
      serializedVersion: 2
      m_Curve:
      - time: 0
        value: 0.33675
        inSlope: 0.90900004
        outSlope: 0.90900004
        tangentMode: 10
      - time: 0.25
        value: 0.564
        inSlope: -0.36949998
        outSlope: -0.36949998
        tangentMode: 10
      - time: 0.5
        value: 0.152
        inSlope: -1.648
        outSlope: -1.648
        tangentMode: 10
      m_PreInfinity: 2
      m_PostInfinity: 2
      m_RotationOrder: 4
    attribute: m_LocalPosition.x
    path: 
    classID: 4
    script: {fileID: 0}
  - curve:
      serializedVersion: 2
      m_Curve:
      - time: 0
        value: -0.3
        inSlope: 0
        outSlope: 0
        tangentMode: 10
      - time: 0.25
        value: -0.3
        inSlope: 0.022000015
        outSlope: 0.022000015
        tangentMode: 10
      - time: 0.5
        value: -0.289
        inSlope: 0.04400003
        outSlope: 0.04400003
        tangentMode: 10
      m_PreInfinity: 2
      m_PostInfinity: 2
      m_RotationOrder: 4
    attribute: m_LocalPosition.y
    path: 
    classID: 4
    script: {fileID: 0}
  - curve:
      serializedVersion: 2
      m_Curve:
      - time: 0
        value: 0.413
        inSlope: 0
        outSlope: 0
        tangentMode: 10
      - time: 0.25
        value: 0.413
        inSlope: 1.0400001
        outSlope: 1.0400001
        tangentMode: 10
      - time: 0.5
        value: 0.933
        inSlope: 2.0800002
        outSlope: 2.0800002
        tangentMode: 10
      m_PreInfinity: 2
      m_PostInfinity: 2
      m_RotationOrder: 4
    attribute: m_LocalPosition.z
    path: 
    classID: 4
    script: {fileID: 0}
  - curve:
      serializedVersion: 2
      m_Curve:
      - time: 0
        value: 149.13829
        inSlope: 97.102844
        outSlope: 97.102844
        tangentMode: 10
      - time: 0.25
        value: 173.414
        inSlope: 97.102844
        outSlope: 97.102844
        tangentMode: 10
      m_PreInfinity: 2
      m_PostInfinity: 2
      m_RotationOrder: 4
    attribute: localEulerAnglesRaw.x
    path: 
    classID: 4
    script: {fileID: 0}
  - curve:
      serializedVersion: 2
      m_Curve:
      - time: 0
        value: -269.20444
        inSlope: -172.13025
        outSlope: -172.13025
        tangentMode: 10
      - time: 0.25
        value: -312.237
        inSlope: -172.13025
        outSlope: -172.13025
        tangentMode: 10
      m_PreInfinity: 2
      m_PostInfinity: 2
      m_RotationOrder: 4
    attribute: localEulerAnglesRaw.y
    path: 
    classID: 4
    script: {fileID: 0}
  - curve:
      serializedVersion: 2
      m_Curve:
      - time: 0
        value: -245.20258
        inSlope: -97.1897
        outSlope: -97.1897
        tangentMode: 10
      - time: 0.25
        value: -269.5
        inSlope: -97.1897
        outSlope: -97.1897
        tangentMode: 10
      m_PreInfinity: 2
      m_PostInfinity: 2
      m_RotationOrder: 4
    attribute: localEulerAnglesRaw.z
    path: 
    classID: 4
    script: {fileID: 0}
  m_EulerEditorCurves:
  - curve:
      serializedVersion: 2
      m_Curve: []
      m_PreInfinity: 2
      m_PostInfinity: 2
      m_RotationOrder: 4
    attribute: m_LocalEulerAngles.x
    path: 
    classID: 4
    script: {fileID: 0}
  - curve:
      serializedVersion: 2
      m_Curve: []
      m_PreInfinity: 2
      m_PostInfinity: 2
      m_RotationOrder: 4
    attribute: m_LocalEulerAngles.y
    path: 
    classID: 4
    script: {fileID: 0}
  - curve:
      serializedVersion: 2
      m_Curve: []
      m_PreInfinity: 2
      m_PostInfinity: 2
      m_RotationOrder: 4
    attribute: m_LocalEulerAngles.z
    path: 
    classID: 4
    script: {fileID: 0}
  m_HasGenericRootTransform: 1
  m_HasMotionFloatCurves: 0
  m_GenerateMotionCurves: 0
  m_Events: []
