%YAML 1.1
%TAG !u! tag:unity3d.com,2011:
--- !u!74 &7400000
AnimationClip:
  m_ObjectHideFlags: 0
  m_PrefabParentObject: {fileID: 0}
  m_PrefabInternal: {fileID: 0}
  m_Name: JabLeft
  serializedVersion: 6
  m_Legacy: 0
  m_Compressed: 0
  m_UseHighQualityCurve: 1
  m_RotationCurves: []
  m_CompressedRotationCurves: []
  m_EulerCurves:
  - curve:
      serializedVersion: 2
      m_Curve:
      - time: 0
        value: {x: -26.774002, y: 264.182, z: -33.467003}
        inSlope: {x: 6.2560043, y: 65.948, z: -149.58002}
        outSlope: {x: 6.2560043, y: 65.948, z: -149.58002}
        tangentMode: 0
      - time: 0.25
        value: {x: -25.210001, y: 280.669, z: -70.86201}
        inSlope: {x: 1.0000038, y: 0, z: 0.0000076293945}
        outSlope: {x: 1.0000038, y: 0, z: 0.0000076293945}
        tangentMode: 0
      - time: 0.5
        value: {x: -26.274, y: 264.182, z: -33.467}
        inSlope: {x: -4.2559967, y: -65.948, z: 149.58003}
        outSlope: {x: -4.2559967, y: -65.948, z: 149.58003}
        tangentMode: 0
      m_PreInfinity: 2
      m_PostInfinity: 2
      m_RotationOrder: 4
    path: 
  m_PositionCurves: []
  m_ScaleCurves: []
  m_FloatCurves:
  - curve:
      serializedVersion: 2
      m_Curve:
      - time: 0
        value: 0.442
        inSlope: 0.5400001
        outSlope: 0.5400001
        tangentMode: 10
      - time: 0.25
        value: 0.577
        inSlope: 0
        outSlope: 0
        tangentMode: 10
      - time: 0.5
        value: 0.442
        inSlope: -0.5400001
        outSlope: -0.5400001
        tangentMode: 10
      m_PreInfinity: 2
      m_PostInfinity: 2
      m_RotationOrder: 4
    attribute: m_LocalPosition.z
    path: 
    classID: 224
    script: {fileID: 0}
  m_PPtrCurves: []
  m_SampleRate: 60
  m_WrapMode: 0
  m_Bounds:
    m_Center: {x: 0, y: 0, z: 0}
    m_Extent: {x: 0, y: 0, z: 0}
  m_ClipBindingConstant:
    genericBindings:
    - path: 0
      attribute: 4
      script: {fileID: 0}
      classID: 4
      customType: 14
      isPPtrCurve: 0
    - path: 0
      attribute: 2033536083
      script: {fileID: 0}
      classID: 224
      customType: 28
      isPPtrCurve: 0
    pptrCurveMapping: []
  m_AnimationClipSettings:
    serializedVersion: 2
    m_AdditiveReferencePoseClip: {fileID: 0}
    m_AdditiveReferencePoseTime: 0
    m_StartTime: 0
    m_StopTime: 0.5
    m_OrientationOffsetY: 0
    m_Level: 0
    m_CycleOffset: 0
    m_HasAdditiveReferencePose: 0
    m_LoopTime: 0
    m_LoopBlend: 0
    m_LoopBlendOrientation: 0
    m_LoopBlendPositionY: 0
    m_LoopBlendPositionXZ: 0
    m_KeepOriginalOrientation: 0
    m_KeepOriginalPositionY: 1
    m_KeepOriginalPositionXZ: 0
    m_HeightFromFeet: 0
    m_Mirror: 0
  m_EditorCurves:
  - curve:
      serializedVersion: 2
      m_Curve:
      - time: 0
        value: 0.442
        inSlope: 0.5400001
        outSlope: 0.5400001
        tangentMode: 10
      - time: 0.25
        value: 0.577
        inSlope: 0
        outSlope: 0
        tangentMode: 10
      - time: 0.5
        value: 0.442
        inSlope: -0.5400001
        outSlope: -0.5400001
        tangentMode: 10
      m_PreInfinity: 2
      m_PostInfinity: 2
      m_RotationOrder: 4
    attribute: m_LocalPosition.z
    path: 
    classID: 224
    script: {fileID: 0}
  - curve:
      serializedVersion: 2
      m_Curve:
      - time: 0
        value: -26.774002
        inSlope: 6.2560043
        outSlope: 6.2560043
        tangentMode: 10
      - time: 0.25
        value: -25.210001
        inSlope: 1.0000038
        outSlope: 1.0000038
        tangentMode: 10
      - time: 0.5
        value: -26.274
        inSlope: -4.2559967
        outSlope: -4.2559967
        tangentMode: 10
      m_PreInfinity: 2
      m_PostInfinity: 2
      m_RotationOrder: 4
    attribute: localEulerAnglesRaw.x
    path: 
    classID: 224
    script: {fileID: 0}
  - curve:
      serializedVersion: 2
      m_Curve:
      - time: 0
        value: 264.182
        inSlope: 65.948
        outSlope: 65.948
        tangentMode: 10
      - time: 0.25
        value: 280.669
        inSlope: 0
        outSlope: 0
        tangentMode: 10
      - time: 0.5
        value: 264.182
        inSlope: -65.948
        outSlope: -65.948
        tangentMode: 10
      m_PreInfinity: 2
      m_PostInfinity: 2
      m_RotationOrder: 4
    attribute: localEulerAnglesRaw.y
    path: 
    classID: 224
    script: {fileID: 0}
  - curve:
      serializedVersion: 2
      m_Curve:
      - time: 0
        value: -33.467003
        inSlope: -149.58002
        outSlope: -149.58002
        tangentMode: 10
      - time: 0.25
        value: -70.86201
        inSlope: 0.0000076293945
        outSlope: 0.0000076293945
        tangentMode: 10
      - time: 0.5
        value: -33.467
        inSlope: 149.58003
        outSlope: 149.58003
        tangentMode: 10
      m_PreInfinity: 2
      m_PostInfinity: 2
      m_RotationOrder: 4
    attribute: localEulerAnglesRaw.z
    path: 
    classID: 224
    script: {fileID: 0}
  m_EulerEditorCurves:
  - curve:
      serializedVersion: 2
      m_Curve: []
      m_PreInfinity: 2
      m_PostInfinity: 2
      m_RotationOrder: 4
    attribute: m_LocalEulerAngles.x
    path: 
    classID: 224
    script: {fileID: 0}
  - curve:
      serializedVersion: 2
      m_Curve: []
      m_PreInfinity: 2
      m_PostInfinity: 2
      m_RotationOrder: 4
    attribute: m_LocalEulerAngles.y
    path: 
    classID: 224
    script: {fileID: 0}
  - curve:
      serializedVersion: 2
      m_Curve: []
      m_PreInfinity: 2
      m_PostInfinity: 2
      m_RotationOrder: 4
    attribute: m_LocalEulerAngles.z
    path: 
    classID: 224
    script: {fileID: 0}
  m_HasGenericRootTransform: 1
  m_HasMotionFloatCurves: 0
  m_GenerateMotionCurves: 0
  m_Events: []
